EESchema Schematic File Version 2
LIBS:power
LIBS:device
LIBS:transistors
LIBS:conn
LIBS:linear
LIBS:regul
LIBS:74xx
LIBS:cmos4000
LIBS:adc-dac
LIBS:memory
LIBS:xilinx
LIBS:microcontrollers
LIBS:dsp
LIBS:microchip
LIBS:analog_switches
LIBS:motorola
LIBS:texas
LIBS:intel
LIBS:audio
LIBS:interface
LIBS:digital-audio
LIBS:philips
LIBS:display
LIBS:cypress
LIBS:siliconi
LIBS:opto
LIBS:atmel
LIBS:contrib
LIBS:valves
LIBS:wheelerlab
LIBS:dropbot-v3-to-v2-adapter-cache
EELAYER 25 0
EELAYER END
$Descr User 11000 8500
encoding utf-8
Sheet 1 1
Title "DropBot v3-to-v2 adapter"
Date "2017-04-12"
Rev "v1.0"
Comp "Sci-Bots Inc."
Comment1 ""
Comment2 ""
Comment3 ""
Comment4 ""
$EndDescr
$Comp
L CONN_01X01 P1
U 1 1 58EDF0CE
P 1300 2050
F 0 "P1" H 1450 2050 50  0000 C CNN
F 1 "CONN_01X01" V 1400 2050 50  0001 C CNN
F 2 "wheelerlab:1.9mm_DMF_Electrode" H 1300 2050 50  0001 C CNN
F 3 "" H 1300 2050 50  0000 C CNN
	1    1300 2050
	-1   0    0    -1  
$EndComp
$Comp
L CONN_01X01 P2
U 1 1 58EE295D
P 2200 2050
F 0 "P2" H 2350 2050 50  0000 C CNN
F 1 "CONN_01X01" V 2300 2050 50  0001 C CNN
F 2 "wheelerlab:1.9mm_DMF_Electrode" H 2200 2050 50  0001 C CNN
F 3 "" H 2200 2050 50  0000 C CNN
	1    2200 2050
	1    0    0    -1  
$EndComp
$Comp
L CONN_01X01 P3
U 1 1 58EE29F4
P 1300 2150
F 0 "P3" H 1450 2150 50  0000 C CNN
F 1 "CONN_01X01" V 1400 2150 50  0001 C CNN
F 2 "wheelerlab:1.9mm_DMF_Electrode" H 1300 2150 50  0001 C CNN
F 3 "" H 1300 2150 50  0000 C CNN
	1    1300 2150
	-1   0    0    -1  
$EndComp
$Comp
L CONN_01X01 P4
U 1 1 58EE29FA
P 2200 2150
F 0 "P4" H 2350 2150 50  0000 C CNN
F 1 "CONN_01X01" V 2300 2150 50  0001 C CNN
F 2 "wheelerlab:1.9mm_DMF_Electrode" H 2200 2150 50  0001 C CNN
F 3 "" H 2200 2150 50  0000 C CNN
	1    2200 2150
	1    0    0    -1  
$EndComp
$Comp
L CONN_01X01 P5
U 1 1 58EE2AC9
P 1300 2250
F 0 "P5" H 1450 2250 50  0000 C CNN
F 1 "CONN_01X01" V 1400 2250 50  0001 C CNN
F 2 "wheelerlab:1.9mm_DMF_Electrode" H 1300 2250 50  0001 C CNN
F 3 "" H 1300 2250 50  0000 C CNN
	1    1300 2250
	-1   0    0    -1  
$EndComp
$Comp
L CONN_01X01 P6
U 1 1 58EE2ACF
P 2200 2250
F 0 "P6" H 2350 2250 50  0000 C CNN
F 1 "CONN_01X01" V 2300 2250 50  0001 C CNN
F 2 "wheelerlab:1.9mm_DMF_Electrode" H 2200 2250 50  0001 C CNN
F 3 "" H 2200 2250 50  0000 C CNN
	1    2200 2250
	1    0    0    -1  
$EndComp
$Comp
L CONN_01X01 P7
U 1 1 58EE2AD5
P 1300 2350
F 0 "P7" H 1450 2350 50  0000 C CNN
F 1 "CONN_01X01" V 1400 2350 50  0001 C CNN
F 2 "wheelerlab:1.9mm_DMF_Electrode" H 1300 2350 50  0001 C CNN
F 3 "" H 1300 2350 50  0000 C CNN
	1    1300 2350
	-1   0    0    -1  
$EndComp
$Comp
L CONN_01X01 P8
U 1 1 58EE2ADB
P 2200 2350
F 0 "P8" H 2350 2350 50  0000 C CNN
F 1 "CONN_01X01" V 2300 2350 50  0001 C CNN
F 2 "wheelerlab:1.9mm_DMF_Electrode" H 2200 2350 50  0001 C CNN
F 3 "" H 2200 2350 50  0000 C CNN
	1    2200 2350
	1    0    0    -1  
$EndComp
$Comp
L CONN_01X01 P9
U 1 1 58EE2D6D
P 1300 2450
F 0 "P9" H 1450 2450 50  0000 C CNN
F 1 "CONN_01X01" V 1400 2450 50  0001 C CNN
F 2 "wheelerlab:1.9mm_DMF_Electrode" H 1300 2450 50  0001 C CNN
F 3 "" H 1300 2450 50  0000 C CNN
	1    1300 2450
	-1   0    0    -1  
$EndComp
$Comp
L CONN_01X01 P10
U 1 1 58EE2D73
P 2200 2450
F 0 "P10" H 2350 2450 50  0000 C CNN
F 1 "CONN_01X01" V 2300 2450 50  0001 C CNN
F 2 "wheelerlab:1.9mm_DMF_Electrode" H 2200 2450 50  0001 C CNN
F 3 "" H 2200 2450 50  0000 C CNN
	1    2200 2450
	1    0    0    -1  
$EndComp
$Comp
L CONN_01X01 P11
U 1 1 58EE2D79
P 1300 2550
F 0 "P11" H 1450 2550 50  0000 C CNN
F 1 "CONN_01X01" V 1400 2550 50  0001 C CNN
F 2 "wheelerlab:1.9mm_DMF_Electrode" H 1300 2550 50  0001 C CNN
F 3 "" H 1300 2550 50  0000 C CNN
	1    1300 2550
	-1   0    0    -1  
$EndComp
$Comp
L CONN_01X01 P12
U 1 1 58EE2D7F
P 2200 2550
F 0 "P12" H 2350 2550 50  0000 C CNN
F 1 "CONN_01X01" V 2300 2550 50  0001 C CNN
F 2 "wheelerlab:1.9mm_DMF_Electrode" H 2200 2550 50  0001 C CNN
F 3 "" H 2200 2550 50  0000 C CNN
	1    2200 2550
	1    0    0    -1  
$EndComp
$Comp
L CONN_01X01 P13
U 1 1 58EE2D85
P 1300 2650
F 0 "P13" H 1450 2650 50  0000 C CNN
F 1 "CONN_01X01" V 1400 2650 50  0001 C CNN
F 2 "wheelerlab:1.9mm_DMF_Electrode" H 1300 2650 50  0001 C CNN
F 3 "" H 1300 2650 50  0000 C CNN
	1    1300 2650
	-1   0    0    -1  
$EndComp
$Comp
L CONN_01X01 P14
U 1 1 58EE2D8B
P 2200 2650
F 0 "P14" H 2350 2650 50  0000 C CNN
F 1 "CONN_01X01" V 2300 2650 50  0001 C CNN
F 2 "wheelerlab:1.9mm_DMF_Electrode" H 2200 2650 50  0001 C CNN
F 3 "" H 2200 2650 50  0000 C CNN
	1    2200 2650
	1    0    0    -1  
$EndComp
$Comp
L CONN_01X01 P15
U 1 1 58EE2D91
P 1300 2750
F 0 "P15" H 1450 2750 50  0000 C CNN
F 1 "CONN_01X01" V 1400 2750 50  0001 C CNN
F 2 "wheelerlab:1.9mm_DMF_Electrode" H 1300 2750 50  0001 C CNN
F 3 "" H 1300 2750 50  0000 C CNN
	1    1300 2750
	-1   0    0    -1  
$EndComp
$Comp
L CONN_01X01 P16
U 1 1 58EE2D97
P 2200 2750
F 0 "P16" H 2350 2750 50  0000 C CNN
F 1 "CONN_01X01" V 2300 2750 50  0001 C CNN
F 2 "wheelerlab:1.9mm_DMF_Electrode" H 2200 2750 50  0001 C CNN
F 3 "" H 2200 2750 50  0000 C CNN
	1    2200 2750
	1    0    0    -1  
$EndComp
$Comp
L CONN_01X01 P17
U 1 1 58EE328C
P 1300 2850
F 0 "P17" H 1450 2850 50  0000 C CNN
F 1 "CONN_01X01" V 1400 2850 50  0001 C CNN
F 2 "wheelerlab:1.9mm_DMF_Electrode" H 1300 2850 50  0001 C CNN
F 3 "" H 1300 2850 50  0000 C CNN
	1    1300 2850
	-1   0    0    -1  
$EndComp
$Comp
L CONN_01X01 P18
U 1 1 58EE3292
P 2200 2850
F 0 "P18" H 2350 2850 50  0000 C CNN
F 1 "CONN_01X01" V 2300 2850 50  0001 C CNN
F 2 "wheelerlab:1.9mm_DMF_Electrode" H 2200 2850 50  0001 C CNN
F 3 "" H 2200 2850 50  0000 C CNN
	1    2200 2850
	1    0    0    -1  
$EndComp
$Comp
L CONN_01X01 P19
U 1 1 58EE3298
P 1300 2950
F 0 "P19" H 1450 2950 50  0000 C CNN
F 1 "CONN_01X01" V 1400 2950 50  0001 C CNN
F 2 "wheelerlab:1.9mm_DMF_Electrode" H 1300 2950 50  0001 C CNN
F 3 "" H 1300 2950 50  0000 C CNN
	1    1300 2950
	-1   0    0    -1  
$EndComp
$Comp
L CONN_01X01 P20
U 1 1 58EE329E
P 2200 2950
F 0 "P20" H 2350 2950 50  0000 C CNN
F 1 "CONN_01X01" V 2300 2950 50  0001 C CNN
F 2 "wheelerlab:1.9mm_DMF_Electrode" H 2200 2950 50  0001 C CNN
F 3 "" H 2200 2950 50  0000 C CNN
	1    2200 2950
	1    0    0    -1  
$EndComp
$Comp
L CONN_01X01 P21
U 1 1 58EE32A4
P 1300 3050
F 0 "P21" H 1450 3050 50  0000 C CNN
F 1 "CONN_01X01" V 1400 3050 50  0001 C CNN
F 2 "wheelerlab:1.9mm_DMF_Electrode" H 1300 3050 50  0001 C CNN
F 3 "" H 1300 3050 50  0000 C CNN
	1    1300 3050
	-1   0    0    -1  
$EndComp
$Comp
L CONN_01X01 P22
U 1 1 58EE32AA
P 2200 3050
F 0 "P22" H 2350 3050 50  0000 C CNN
F 1 "CONN_01X01" V 2300 3050 50  0001 C CNN
F 2 "wheelerlab:1.9mm_DMF_Electrode" H 2200 3050 50  0001 C CNN
F 3 "" H 2200 3050 50  0000 C CNN
	1    2200 3050
	1    0    0    -1  
$EndComp
$Comp
L CONN_01X01 P23
U 1 1 58EE32B0
P 1300 3150
F 0 "P23" H 1450 3150 50  0000 C CNN
F 1 "CONN_01X01" V 1400 3150 50  0001 C CNN
F 2 "wheelerlab:1.9mm_DMF_Electrode" H 1300 3150 50  0001 C CNN
F 3 "" H 1300 3150 50  0000 C CNN
	1    1300 3150
	-1   0    0    -1  
$EndComp
$Comp
L CONN_01X01 P24
U 1 1 58EE32B6
P 2200 3150
F 0 "P24" H 2350 3150 50  0000 C CNN
F 1 "CONN_01X01" V 2300 3150 50  0001 C CNN
F 2 "wheelerlab:1.9mm_DMF_Electrode" H 2200 3150 50  0001 C CNN
F 3 "" H 2200 3150 50  0000 C CNN
	1    2200 3150
	1    0    0    -1  
$EndComp
$Comp
L CONN_01X01 P25
U 1 1 58EE32BC
P 1300 3250
F 0 "P25" H 1450 3250 50  0000 C CNN
F 1 "CONN_01X01" V 1400 3250 50  0001 C CNN
F 2 "wheelerlab:1.9mm_DMF_Electrode" H 1300 3250 50  0001 C CNN
F 3 "" H 1300 3250 50  0000 C CNN
	1    1300 3250
	-1   0    0    -1  
$EndComp
$Comp
L CONN_01X01 P26
U 1 1 58EE32C2
P 2200 3250
F 0 "P26" H 2350 3250 50  0000 C CNN
F 1 "CONN_01X01" V 2300 3250 50  0001 C CNN
F 2 "wheelerlab:1.9mm_DMF_Electrode" H 2200 3250 50  0001 C CNN
F 3 "" H 2200 3250 50  0000 C CNN
	1    2200 3250
	1    0    0    -1  
$EndComp
$Comp
L CONN_01X01 P27
U 1 1 58EE32C8
P 1300 3350
F 0 "P27" H 1450 3350 50  0000 C CNN
F 1 "CONN_01X01" V 1400 3350 50  0001 C CNN
F 2 "wheelerlab:1.9mm_DMF_Electrode" H 1300 3350 50  0001 C CNN
F 3 "" H 1300 3350 50  0000 C CNN
	1    1300 3350
	-1   0    0    -1  
$EndComp
$Comp
L CONN_01X01 P28
U 1 1 58EE32CE
P 2200 3350
F 0 "P28" H 2350 3350 50  0000 C CNN
F 1 "CONN_01X01" V 2300 3350 50  0001 C CNN
F 2 "wheelerlab:1.9mm_DMF_Electrode" H 2200 3350 50  0001 C CNN
F 3 "" H 2200 3350 50  0000 C CNN
	1    2200 3350
	1    0    0    -1  
$EndComp
$Comp
L CONN_01X01 P29
U 1 1 58EE32D4
P 1300 3450
F 0 "P29" H 1450 3450 50  0000 C CNN
F 1 "CONN_01X01" V 1400 3450 50  0001 C CNN
F 2 "wheelerlab:1.9mm_DMF_Electrode" H 1300 3450 50  0001 C CNN
F 3 "" H 1300 3450 50  0000 C CNN
	1    1300 3450
	-1   0    0    -1  
$EndComp
$Comp
L CONN_01X01 P30
U 1 1 58EE32DA
P 2200 3450
F 0 "P30" H 2350 3450 50  0000 C CNN
F 1 "CONN_01X01" V 2300 3450 50  0001 C CNN
F 2 "wheelerlab:1.9mm_DMF_Electrode" H 2200 3450 50  0001 C CNN
F 3 "" H 2200 3450 50  0000 C CNN
	1    2200 3450
	1    0    0    -1  
$EndComp
$Comp
L CONN_01X01 P31
U 1 1 58EE32E0
P 1300 3550
F 0 "P31" H 1450 3550 50  0000 C CNN
F 1 "CONN_01X01" V 1400 3550 50  0001 C CNN
F 2 "wheelerlab:1.9mm_DMF_Electrode" H 1300 3550 50  0001 C CNN
F 3 "" H 1300 3550 50  0000 C CNN
	1    1300 3550
	-1   0    0    -1  
$EndComp
$Comp
L CONN_01X01 P32
U 1 1 58EE32E6
P 2200 3550
F 0 "P32" H 2350 3550 50  0000 C CNN
F 1 "CONN_01X01" V 2300 3550 50  0001 C CNN
F 2 "wheelerlab:1.9mm_DMF_Electrode" H 2200 3550 50  0001 C CNN
F 3 "" H 2200 3550 50  0000 C CNN
	1    2200 3550
	1    0    0    -1  
$EndComp
$Comp
L CONN_01X01 P33
U 1 1 58EE3DA1
P 1300 3650
F 0 "P33" H 1450 3650 50  0000 C CNN
F 1 "CONN_01X01" V 1400 3650 50  0001 C CNN
F 2 "wheelerlab:1.9mm_DMF_Electrode" H 1300 3650 50  0001 C CNN
F 3 "" H 1300 3650 50  0000 C CNN
	1    1300 3650
	-1   0    0    -1  
$EndComp
$Comp
L CONN_01X01 P34
U 1 1 58EE3DA7
P 2200 3650
F 0 "P34" H 2350 3650 50  0000 C CNN
F 1 "CONN_01X01" V 2300 3650 50  0001 C CNN
F 2 "wheelerlab:1.9mm_DMF_Electrode" H 2200 3650 50  0001 C CNN
F 3 "" H 2200 3650 50  0000 C CNN
	1    2200 3650
	1    0    0    -1  
$EndComp
$Comp
L CONN_01X01 P35
U 1 1 58EE3DAD
P 1300 3750
F 0 "P35" H 1450 3750 50  0000 C CNN
F 1 "CONN_01X01" V 1400 3750 50  0001 C CNN
F 2 "wheelerlab:1.9mm_DMF_Electrode" H 1300 3750 50  0001 C CNN
F 3 "" H 1300 3750 50  0000 C CNN
	1    1300 3750
	-1   0    0    -1  
$EndComp
$Comp
L CONN_01X01 P36
U 1 1 58EE3DB3
P 2200 3750
F 0 "P36" H 2350 3750 50  0000 C CNN
F 1 "CONN_01X01" V 2300 3750 50  0001 C CNN
F 2 "wheelerlab:1.9mm_DMF_Electrode" H 2200 3750 50  0001 C CNN
F 3 "" H 2200 3750 50  0000 C CNN
	1    2200 3750
	1    0    0    -1  
$EndComp
$Comp
L CONN_01X01 P37
U 1 1 58EE3DB9
P 1300 3850
F 0 "P37" H 1450 3850 50  0000 C CNN
F 1 "CONN_01X01" V 1400 3850 50  0001 C CNN
F 2 "wheelerlab:1.9mm_DMF_Electrode" H 1300 3850 50  0001 C CNN
F 3 "" H 1300 3850 50  0000 C CNN
	1    1300 3850
	-1   0    0    -1  
$EndComp
$Comp
L CONN_01X01 P38
U 1 1 58EE3DBF
P 2200 3850
F 0 "P38" H 2350 3850 50  0000 C CNN
F 1 "CONN_01X01" V 2300 3850 50  0001 C CNN
F 2 "wheelerlab:1.9mm_DMF_Electrode" H 2200 3850 50  0001 C CNN
F 3 "" H 2200 3850 50  0000 C CNN
	1    2200 3850
	1    0    0    -1  
$EndComp
$Comp
L CONN_01X01 P39
U 1 1 58EE3DC5
P 1300 3950
F 0 "P39" H 1450 3950 50  0000 C CNN
F 1 "CONN_01X01" V 1400 3950 50  0001 C CNN
F 2 "wheelerlab:1.9mm_DMF_Electrode" H 1300 3950 50  0001 C CNN
F 3 "" H 1300 3950 50  0000 C CNN
	1    1300 3950
	-1   0    0    -1  
$EndComp
$Comp
L CONN_01X01 P40
U 1 1 58EE3DCB
P 2200 3950
F 0 "P40" H 2350 3950 50  0000 C CNN
F 1 "CONN_01X01" V 2300 3950 50  0001 C CNN
F 2 "wheelerlab:1.9mm_DMF_Electrode" H 2200 3950 50  0001 C CNN
F 3 "" H 2200 3950 50  0000 C CNN
	1    2200 3950
	1    0    0    -1  
$EndComp
$Comp
L CONN_01X01 P41
U 1 1 58EE4BFF
P 2900 2050
F 0 "P41" H 3050 2050 50  0000 C CNN
F 1 "CONN_01X01" V 3000 2050 50  0001 C CNN
F 2 "wheelerlab:1.9mm_DMF_Electrode" H 2900 2050 50  0001 C CNN
F 3 "" H 2900 2050 50  0000 C CNN
	1    2900 2050
	-1   0    0    -1  
$EndComp
$Comp
L CONN_01X01 P42
U 1 1 58EE4C05
P 3800 2050
F 0 "P42" H 3950 2050 50  0000 C CNN
F 1 "CONN_01X01" V 3900 2050 50  0001 C CNN
F 2 "wheelerlab:1.9mm_DMF_Electrode" H 3800 2050 50  0001 C CNN
F 3 "" H 3800 2050 50  0000 C CNN
	1    3800 2050
	1    0    0    -1  
$EndComp
$Comp
L CONN_01X01 P43
U 1 1 58EE4C0B
P 2900 2150
F 0 "P43" H 3050 2150 50  0000 C CNN
F 1 "CONN_01X01" V 3000 2150 50  0001 C CNN
F 2 "wheelerlab:1.9mm_DMF_Electrode" H 2900 2150 50  0001 C CNN
F 3 "" H 2900 2150 50  0000 C CNN
	1    2900 2150
	-1   0    0    -1  
$EndComp
$Comp
L CONN_01X01 P44
U 1 1 58EE4C11
P 3800 2150
F 0 "P44" H 3950 2150 50  0000 C CNN
F 1 "CONN_01X01" V 3900 2150 50  0001 C CNN
F 2 "wheelerlab:1.9mm_DMF_Electrode" H 3800 2150 50  0001 C CNN
F 3 "" H 3800 2150 50  0000 C CNN
	1    3800 2150
	1    0    0    -1  
$EndComp
$Comp
L CONN_01X01 P45
U 1 1 58EE4C17
P 2900 2250
F 0 "P45" H 3050 2250 50  0000 C CNN
F 1 "CONN_01X01" V 3000 2250 50  0001 C CNN
F 2 "wheelerlab:1.9mm_DMF_Electrode" H 2900 2250 50  0001 C CNN
F 3 "" H 2900 2250 50  0000 C CNN
	1    2900 2250
	-1   0    0    -1  
$EndComp
$Comp
L CONN_01X01 P46
U 1 1 58EE4C1D
P 3800 2250
F 0 "P46" H 3950 2250 50  0000 C CNN
F 1 "CONN_01X01" V 3900 2250 50  0001 C CNN
F 2 "wheelerlab:1.9mm_DMF_Electrode" H 3800 2250 50  0001 C CNN
F 3 "" H 3800 2250 50  0000 C CNN
	1    3800 2250
	1    0    0    -1  
$EndComp
$Comp
L CONN_01X01 P47
U 1 1 58EE4C23
P 2900 2350
F 0 "P47" H 3050 2350 50  0000 C CNN
F 1 "CONN_01X01" V 3000 2350 50  0001 C CNN
F 2 "wheelerlab:1.9mm_DMF_Electrode" H 2900 2350 50  0001 C CNN
F 3 "" H 2900 2350 50  0000 C CNN
	1    2900 2350
	-1   0    0    -1  
$EndComp
$Comp
L CONN_01X01 P48
U 1 1 58EE4C29
P 3800 2350
F 0 "P48" H 3950 2350 50  0000 C CNN
F 1 "CONN_01X01" V 3900 2350 50  0001 C CNN
F 2 "wheelerlab:1.9mm_DMF_Electrode" H 3800 2350 50  0001 C CNN
F 3 "" H 3800 2350 50  0000 C CNN
	1    3800 2350
	1    0    0    -1  
$EndComp
$Comp
L CONN_01X01 P49
U 1 1 58EE4C2F
P 2900 2450
F 0 "P49" H 3050 2450 50  0000 C CNN
F 1 "CONN_01X01" V 3000 2450 50  0001 C CNN
F 2 "wheelerlab:1.9mm_DMF_Electrode" H 2900 2450 50  0001 C CNN
F 3 "" H 2900 2450 50  0000 C CNN
	1    2900 2450
	-1   0    0    -1  
$EndComp
$Comp
L CONN_01X01 P50
U 1 1 58EE4C35
P 3800 2450
F 0 "P50" H 3950 2450 50  0000 C CNN
F 1 "CONN_01X01" V 3900 2450 50  0001 C CNN
F 2 "wheelerlab:1.9mm_DMF_Electrode" H 3800 2450 50  0001 C CNN
F 3 "" H 3800 2450 50  0000 C CNN
	1    3800 2450
	1    0    0    -1  
$EndComp
$Comp
L CONN_01X01 P51
U 1 1 58EE4C3B
P 2900 2550
F 0 "P51" H 3050 2550 50  0000 C CNN
F 1 "CONN_01X01" V 3000 2550 50  0001 C CNN
F 2 "wheelerlab:1.9mm_DMF_Electrode" H 2900 2550 50  0001 C CNN
F 3 "" H 2900 2550 50  0000 C CNN
	1    2900 2550
	-1   0    0    -1  
$EndComp
$Comp
L CONN_01X01 P52
U 1 1 58EE4C41
P 3800 2550
F 0 "P52" H 3950 2550 50  0000 C CNN
F 1 "CONN_01X01" V 3900 2550 50  0001 C CNN
F 2 "wheelerlab:1.9mm_DMF_Electrode" H 3800 2550 50  0001 C CNN
F 3 "" H 3800 2550 50  0000 C CNN
	1    3800 2550
	1    0    0    -1  
$EndComp
$Comp
L CONN_01X01 P53
U 1 1 58EE4C47
P 2900 2650
F 0 "P53" H 3050 2650 50  0000 C CNN
F 1 "CONN_01X01" V 3000 2650 50  0001 C CNN
F 2 "wheelerlab:1.9mm_DMF_Electrode" H 2900 2650 50  0001 C CNN
F 3 "" H 2900 2650 50  0000 C CNN
	1    2900 2650
	-1   0    0    -1  
$EndComp
$Comp
L CONN_01X01 P54
U 1 1 58EE4C4D
P 3800 2650
F 0 "P54" H 3950 2650 50  0000 C CNN
F 1 "CONN_01X01" V 3900 2650 50  0001 C CNN
F 2 "wheelerlab:1.9mm_DMF_Electrode" H 3800 2650 50  0001 C CNN
F 3 "" H 3800 2650 50  0000 C CNN
	1    3800 2650
	1    0    0    -1  
$EndComp
$Comp
L CONN_01X01 P55
U 1 1 58EE4C53
P 2900 2750
F 0 "P55" H 3050 2750 50  0000 C CNN
F 1 "CONN_01X01" V 3000 2750 50  0001 C CNN
F 2 "wheelerlab:1.9mm_DMF_Electrode" H 2900 2750 50  0001 C CNN
F 3 "" H 2900 2750 50  0000 C CNN
	1    2900 2750
	-1   0    0    -1  
$EndComp
$Comp
L CONN_01X01 P56
U 1 1 58EE4C59
P 3800 2750
F 0 "P56" H 3950 2750 50  0000 C CNN
F 1 "CONN_01X01" V 3900 2750 50  0001 C CNN
F 2 "wheelerlab:1.9mm_DMF_Electrode" H 3800 2750 50  0001 C CNN
F 3 "" H 3800 2750 50  0000 C CNN
	1    3800 2750
	1    0    0    -1  
$EndComp
$Comp
L CONN_01X01 P57
U 1 1 58EE4C5F
P 2900 2850
F 0 "P57" H 3050 2850 50  0000 C CNN
F 1 "CONN_01X01" V 3000 2850 50  0001 C CNN
F 2 "wheelerlab:1.9mm_DMF_Electrode" H 2900 2850 50  0001 C CNN
F 3 "" H 2900 2850 50  0000 C CNN
	1    2900 2850
	-1   0    0    -1  
$EndComp
$Comp
L CONN_01X01 P58
U 1 1 58EE4C65
P 3800 2850
F 0 "P58" H 3950 2850 50  0000 C CNN
F 1 "CONN_01X01" V 3900 2850 50  0001 C CNN
F 2 "wheelerlab:1.9mm_DMF_Electrode" H 3800 2850 50  0001 C CNN
F 3 "" H 3800 2850 50  0000 C CNN
	1    3800 2850
	1    0    0    -1  
$EndComp
$Comp
L CONN_01X01 P59
U 1 1 58EE4C6B
P 2900 2950
F 0 "P59" H 3050 2950 50  0000 C CNN
F 1 "CONN_01X01" V 3000 2950 50  0001 C CNN
F 2 "wheelerlab:1.9mm_DMF_Electrode" H 2900 2950 50  0001 C CNN
F 3 "" H 2900 2950 50  0000 C CNN
	1    2900 2950
	-1   0    0    -1  
$EndComp
$Comp
L CONN_01X01 P60
U 1 1 58EE4C71
P 3800 2950
F 0 "P60" H 3950 2950 50  0000 C CNN
F 1 "CONN_01X01" V 3900 2950 50  0001 C CNN
F 2 "wheelerlab:1.9mm_DMF_Electrode" H 3800 2950 50  0001 C CNN
F 3 "" H 3800 2950 50  0000 C CNN
	1    3800 2950
	1    0    0    -1  
$EndComp
$Comp
L CONN_01X01 P61
U 1 1 58EE4C77
P 2900 3050
F 0 "P61" H 3050 3050 50  0000 C CNN
F 1 "CONN_01X01" V 3000 3050 50  0001 C CNN
F 2 "wheelerlab:1.9mm_DMF_Electrode" H 2900 3050 50  0001 C CNN
F 3 "" H 2900 3050 50  0000 C CNN
	1    2900 3050
	-1   0    0    -1  
$EndComp
$Comp
L CONN_01X01 P62
U 1 1 58EE4C7D
P 3800 3050
F 0 "P62" H 3950 3050 50  0000 C CNN
F 1 "CONN_01X01" V 3900 3050 50  0001 C CNN
F 2 "wheelerlab:1.9mm_DMF_Electrode" H 3800 3050 50  0001 C CNN
F 3 "" H 3800 3050 50  0000 C CNN
	1    3800 3050
	1    0    0    -1  
$EndComp
$Comp
L CONN_01X01 P63
U 1 1 58EE4C83
P 2900 3150
F 0 "P63" H 3050 3150 50  0000 C CNN
F 1 "CONN_01X01" V 3000 3150 50  0001 C CNN
F 2 "wheelerlab:1.9mm_DMF_Electrode" H 2900 3150 50  0001 C CNN
F 3 "" H 2900 3150 50  0000 C CNN
	1    2900 3150
	-1   0    0    -1  
$EndComp
$Comp
L CONN_01X01 P64
U 1 1 58EE4C89
P 3800 3150
F 0 "P64" H 3950 3150 50  0000 C CNN
F 1 "CONN_01X01" V 3900 3150 50  0001 C CNN
F 2 "wheelerlab:1.9mm_DMF_Electrode" H 3800 3150 50  0001 C CNN
F 3 "" H 3800 3150 50  0000 C CNN
	1    3800 3150
	1    0    0    -1  
$EndComp
$Comp
L CONN_01X01 P65
U 1 1 58EE4C8F
P 2900 3250
F 0 "P65" H 3050 3250 50  0000 C CNN
F 1 "CONN_01X01" V 3000 3250 50  0001 C CNN
F 2 "wheelerlab:1.9mm_DMF_Electrode" H 2900 3250 50  0001 C CNN
F 3 "" H 2900 3250 50  0000 C CNN
	1    2900 3250
	-1   0    0    -1  
$EndComp
$Comp
L CONN_01X01 P66
U 1 1 58EE4C95
P 3800 3250
F 0 "P66" H 3950 3250 50  0000 C CNN
F 1 "CONN_01X01" V 3900 3250 50  0001 C CNN
F 2 "wheelerlab:1.9mm_DMF_Electrode" H 3800 3250 50  0001 C CNN
F 3 "" H 3800 3250 50  0000 C CNN
	1    3800 3250
	1    0    0    -1  
$EndComp
$Comp
L CONN_01X01 P67
U 1 1 58EE4C9B
P 2900 3350
F 0 "P67" H 3050 3350 50  0000 C CNN
F 1 "CONN_01X01" V 3000 3350 50  0001 C CNN
F 2 "wheelerlab:1.9mm_DMF_Electrode" H 2900 3350 50  0001 C CNN
F 3 "" H 2900 3350 50  0000 C CNN
	1    2900 3350
	-1   0    0    -1  
$EndComp
$Comp
L CONN_01X01 P68
U 1 1 58EE4CA1
P 3800 3350
F 0 "P68" H 3950 3350 50  0000 C CNN
F 1 "CONN_01X01" V 3900 3350 50  0001 C CNN
F 2 "wheelerlab:1.9mm_DMF_Electrode" H 3800 3350 50  0001 C CNN
F 3 "" H 3800 3350 50  0000 C CNN
	1    3800 3350
	1    0    0    -1  
$EndComp
$Comp
L CONN_01X01 P69
U 1 1 58EE4CA7
P 2900 3450
F 0 "P69" H 3050 3450 50  0000 C CNN
F 1 "CONN_01X01" V 3000 3450 50  0001 C CNN
F 2 "wheelerlab:1.9mm_DMF_Electrode" H 2900 3450 50  0001 C CNN
F 3 "" H 2900 3450 50  0000 C CNN
	1    2900 3450
	-1   0    0    -1  
$EndComp
$Comp
L CONN_01X01 P70
U 1 1 58EE4CAD
P 3800 3450
F 0 "P70" H 3950 3450 50  0000 C CNN
F 1 "CONN_01X01" V 3900 3450 50  0001 C CNN
F 2 "wheelerlab:1.9mm_DMF_Electrode" H 3800 3450 50  0001 C CNN
F 3 "" H 3800 3450 50  0000 C CNN
	1    3800 3450
	1    0    0    -1  
$EndComp
$Comp
L CONN_01X01 P71
U 1 1 58EE4CB3
P 2900 3550
F 0 "P71" H 3050 3550 50  0000 C CNN
F 1 "CONN_01X01" V 3000 3550 50  0001 C CNN
F 2 "wheelerlab:1.9mm_DMF_Electrode" H 2900 3550 50  0001 C CNN
F 3 "" H 2900 3550 50  0000 C CNN
	1    2900 3550
	-1   0    0    -1  
$EndComp
$Comp
L CONN_01X01 P72
U 1 1 58EE4CB9
P 3800 3550
F 0 "P72" H 3950 3550 50  0000 C CNN
F 1 "CONN_01X01" V 3900 3550 50  0001 C CNN
F 2 "wheelerlab:1.9mm_DMF_Electrode" H 3800 3550 50  0001 C CNN
F 3 "" H 3800 3550 50  0000 C CNN
	1    3800 3550
	1    0    0    -1  
$EndComp
$Comp
L CONN_01X01 P73
U 1 1 58EE4CBF
P 2900 3650
F 0 "P73" H 3050 3650 50  0000 C CNN
F 1 "CONN_01X01" V 3000 3650 50  0001 C CNN
F 2 "wheelerlab:1.9mm_DMF_Electrode" H 2900 3650 50  0001 C CNN
F 3 "" H 2900 3650 50  0000 C CNN
	1    2900 3650
	-1   0    0    -1  
$EndComp
$Comp
L CONN_01X01 P74
U 1 1 58EE4CC5
P 3800 3650
F 0 "P74" H 3950 3650 50  0000 C CNN
F 1 "CONN_01X01" V 3900 3650 50  0001 C CNN
F 2 "wheelerlab:1.9mm_DMF_Electrode" H 3800 3650 50  0001 C CNN
F 3 "" H 3800 3650 50  0000 C CNN
	1    3800 3650
	1    0    0    -1  
$EndComp
$Comp
L CONN_01X01 P75
U 1 1 58EE4CCB
P 2900 3750
F 0 "P75" H 3050 3750 50  0000 C CNN
F 1 "CONN_01X01" V 3000 3750 50  0001 C CNN
F 2 "wheelerlab:1.9mm_DMF_Electrode" H 2900 3750 50  0001 C CNN
F 3 "" H 2900 3750 50  0000 C CNN
	1    2900 3750
	-1   0    0    -1  
$EndComp
$Comp
L CONN_01X01 P76
U 1 1 58EE4CD1
P 3800 3750
F 0 "P76" H 3950 3750 50  0000 C CNN
F 1 "CONN_01X01" V 3900 3750 50  0001 C CNN
F 2 "wheelerlab:1.9mm_DMF_Electrode" H 3800 3750 50  0001 C CNN
F 3 "" H 3800 3750 50  0000 C CNN
	1    3800 3750
	1    0    0    -1  
$EndComp
$Comp
L CONN_01X01 P77
U 1 1 58EE4CD7
P 2900 3850
F 0 "P77" H 3050 3850 50  0000 C CNN
F 1 "CONN_01X01" V 3000 3850 50  0001 C CNN
F 2 "wheelerlab:1.9mm_DMF_Electrode" H 2900 3850 50  0001 C CNN
F 3 "" H 2900 3850 50  0000 C CNN
	1    2900 3850
	-1   0    0    -1  
$EndComp
$Comp
L CONN_01X01 P78
U 1 1 58EE4CDD
P 3800 3850
F 0 "P78" H 3950 3850 50  0000 C CNN
F 1 "CONN_01X01" V 3900 3850 50  0001 C CNN
F 2 "wheelerlab:1.9mm_DMF_Electrode" H 3800 3850 50  0001 C CNN
F 3 "" H 3800 3850 50  0000 C CNN
	1    3800 3850
	1    0    0    -1  
$EndComp
$Comp
L CONN_01X01 P79
U 1 1 58EE4CE3
P 2900 3950
F 0 "P79" H 3050 3950 50  0000 C CNN
F 1 "CONN_01X01" V 3000 3950 50  0001 C CNN
F 2 "wheelerlab:1.9mm_DMF_Electrode" H 2900 3950 50  0001 C CNN
F 3 "" H 2900 3950 50  0000 C CNN
	1    2900 3950
	-1   0    0    -1  
$EndComp
$Comp
L CONN_01X01 P80
U 1 1 58EE4CE9
P 3800 3950
F 0 "P80" H 3950 3950 50  0000 C CNN
F 1 "CONN_01X01" V 3900 3950 50  0001 C CNN
F 2 "wheelerlab:1.9mm_DMF_Electrode" H 3800 3950 50  0001 C CNN
F 3 "" H 3800 3950 50  0000 C CNN
	1    3800 3950
	1    0    0    -1  
$EndComp
$Comp
L CONN_01X01 P81
U 1 1 58EE5151
P 4450 2050
F 0 "P81" H 4600 2050 50  0000 C CNN
F 1 "CONN_01X01" V 4550 2050 50  0001 C CNN
F 2 "wheelerlab:1.9mm_DMF_Electrode" H 4450 2050 50  0001 C CNN
F 3 "" H 4450 2050 50  0000 C CNN
	1    4450 2050
	-1   0    0    -1  
$EndComp
$Comp
L CONN_01X01 P82
U 1 1 58EE5157
P 5350 2050
F 0 "P82" H 5500 2050 50  0000 C CNN
F 1 "CONN_01X01" V 5450 2050 50  0001 C CNN
F 2 "wheelerlab:1.9mm_DMF_Electrode" H 5350 2050 50  0001 C CNN
F 3 "" H 5350 2050 50  0000 C CNN
	1    5350 2050
	1    0    0    -1  
$EndComp
$Comp
L CONN_01X01 P83
U 1 1 58EE515D
P 4450 2150
F 0 "P83" H 4600 2150 50  0000 C CNN
F 1 "CONN_01X01" V 4550 2150 50  0001 C CNN
F 2 "wheelerlab:1.9mm_DMF_Electrode" H 4450 2150 50  0001 C CNN
F 3 "" H 4450 2150 50  0000 C CNN
	1    4450 2150
	-1   0    0    -1  
$EndComp
$Comp
L CONN_01X01 P84
U 1 1 58EE5163
P 5350 2150
F 0 "P84" H 5500 2150 50  0000 C CNN
F 1 "CONN_01X01" V 5450 2150 50  0001 C CNN
F 2 "wheelerlab:1.9mm_DMF_Electrode" H 5350 2150 50  0001 C CNN
F 3 "" H 5350 2150 50  0000 C CNN
	1    5350 2150
	1    0    0    -1  
$EndComp
$Comp
L CONN_01X01 P85
U 1 1 58EE5169
P 4450 2250
F 0 "P85" H 4600 2250 50  0000 C CNN
F 1 "CONN_01X01" V 4550 2250 50  0001 C CNN
F 2 "wheelerlab:1.9mm_DMF_Electrode" H 4450 2250 50  0001 C CNN
F 3 "" H 4450 2250 50  0000 C CNN
	1    4450 2250
	-1   0    0    -1  
$EndComp
$Comp
L CONN_01X01 P86
U 1 1 58EE516F
P 5350 2250
F 0 "P86" H 5500 2250 50  0000 C CNN
F 1 "CONN_01X01" V 5450 2250 50  0001 C CNN
F 2 "wheelerlab:1.9mm_DMF_Electrode" H 5350 2250 50  0001 C CNN
F 3 "" H 5350 2250 50  0000 C CNN
	1    5350 2250
	1    0    0    -1  
$EndComp
$Comp
L CONN_01X01 P87
U 1 1 58EE5175
P 4450 2350
F 0 "P87" H 4600 2350 50  0000 C CNN
F 1 "CONN_01X01" V 4550 2350 50  0001 C CNN
F 2 "wheelerlab:1.9mm_DMF_Electrode" H 4450 2350 50  0001 C CNN
F 3 "" H 4450 2350 50  0000 C CNN
	1    4450 2350
	-1   0    0    -1  
$EndComp
$Comp
L CONN_01X01 P88
U 1 1 58EE517B
P 5350 2350
F 0 "P88" H 5500 2350 50  0000 C CNN
F 1 "CONN_01X01" V 5450 2350 50  0001 C CNN
F 2 "wheelerlab:1.9mm_DMF_Electrode" H 5350 2350 50  0001 C CNN
F 3 "" H 5350 2350 50  0000 C CNN
	1    5350 2350
	1    0    0    -1  
$EndComp
$Comp
L CONN_01X01 P89
U 1 1 58EE5181
P 4450 2450
F 0 "P89" H 4600 2450 50  0000 C CNN
F 1 "CONN_01X01" V 4550 2450 50  0001 C CNN
F 2 "wheelerlab:1.9mm_DMF_Electrode" H 4450 2450 50  0001 C CNN
F 3 "" H 4450 2450 50  0000 C CNN
	1    4450 2450
	-1   0    0    -1  
$EndComp
$Comp
L CONN_01X01 P90
U 1 1 58EE5187
P 5350 2450
F 0 "P90" H 5500 2450 50  0000 C CNN
F 1 "CONN_01X01" V 5450 2450 50  0001 C CNN
F 2 "wheelerlab:1.9mm_DMF_Electrode" H 5350 2450 50  0001 C CNN
F 3 "" H 5350 2450 50  0000 C CNN
	1    5350 2450
	1    0    0    -1  
$EndComp
$Comp
L CONN_01X01 P91
U 1 1 58EE518D
P 4450 2550
F 0 "P91" H 4600 2550 50  0000 C CNN
F 1 "CONN_01X01" V 4550 2550 50  0001 C CNN
F 2 "wheelerlab:1.9mm_DMF_Electrode" H 4450 2550 50  0001 C CNN
F 3 "" H 4450 2550 50  0000 C CNN
	1    4450 2550
	-1   0    0    -1  
$EndComp
$Comp
L CONN_01X01 P92
U 1 1 58EE5193
P 5350 2550
F 0 "P92" H 5500 2550 50  0000 C CNN
F 1 "CONN_01X01" V 5450 2550 50  0001 C CNN
F 2 "wheelerlab:1.9mm_DMF_Electrode" H 5350 2550 50  0001 C CNN
F 3 "" H 5350 2550 50  0000 C CNN
	1    5350 2550
	1    0    0    -1  
$EndComp
$Comp
L CONN_01X01 P93
U 1 1 58EE5199
P 4450 2650
F 0 "P93" H 4600 2650 50  0000 C CNN
F 1 "CONN_01X01" V 4550 2650 50  0001 C CNN
F 2 "wheelerlab:1.9mm_DMF_Electrode" H 4450 2650 50  0001 C CNN
F 3 "" H 4450 2650 50  0000 C CNN
	1    4450 2650
	-1   0    0    -1  
$EndComp
$Comp
L CONN_01X01 P94
U 1 1 58EE519F
P 5350 2650
F 0 "P94" H 5500 2650 50  0000 C CNN
F 1 "CONN_01X01" V 5450 2650 50  0001 C CNN
F 2 "wheelerlab:1.9mm_DMF_Electrode" H 5350 2650 50  0001 C CNN
F 3 "" H 5350 2650 50  0000 C CNN
	1    5350 2650
	1    0    0    -1  
$EndComp
$Comp
L CONN_01X01 P95
U 1 1 58EE51A5
P 4450 2750
F 0 "P95" H 4600 2750 50  0000 C CNN
F 1 "CONN_01X01" V 4550 2750 50  0001 C CNN
F 2 "wheelerlab:1.9mm_DMF_Electrode" H 4450 2750 50  0001 C CNN
F 3 "" H 4450 2750 50  0000 C CNN
	1    4450 2750
	-1   0    0    -1  
$EndComp
$Comp
L CONN_01X01 P96
U 1 1 58EE51AB
P 5350 2750
F 0 "P96" H 5500 2750 50  0000 C CNN
F 1 "CONN_01X01" V 5450 2750 50  0001 C CNN
F 2 "wheelerlab:1.9mm_DMF_Electrode" H 5350 2750 50  0001 C CNN
F 3 "" H 5350 2750 50  0000 C CNN
	1    5350 2750
	1    0    0    -1  
$EndComp
$Comp
L CONN_01X01 P97
U 1 1 58EE51B1
P 4450 2850
F 0 "P97" H 4600 2850 50  0000 C CNN
F 1 "CONN_01X01" V 4550 2850 50  0001 C CNN
F 2 "wheelerlab:1.9mm_DMF_Electrode" H 4450 2850 50  0001 C CNN
F 3 "" H 4450 2850 50  0000 C CNN
	1    4450 2850
	-1   0    0    -1  
$EndComp
$Comp
L CONN_01X01 P98
U 1 1 58EE51B7
P 5350 2850
F 0 "P98" H 5500 2850 50  0000 C CNN
F 1 "CONN_01X01" V 5450 2850 50  0001 C CNN
F 2 "wheelerlab:1.9mm_DMF_Electrode" H 5350 2850 50  0001 C CNN
F 3 "" H 5350 2850 50  0000 C CNN
	1    5350 2850
	1    0    0    -1  
$EndComp
$Comp
L CONN_01X01 P99
U 1 1 58EE51BD
P 4450 2950
F 0 "P99" H 4600 2950 50  0000 C CNN
F 1 "CONN_01X01" V 4550 2950 50  0001 C CNN
F 2 "wheelerlab:1.9mm_DMF_Electrode" H 4450 2950 50  0001 C CNN
F 3 "" H 4450 2950 50  0000 C CNN
	1    4450 2950
	-1   0    0    -1  
$EndComp
$Comp
L CONN_01X01 P100
U 1 1 58EE51C3
P 5350 2950
F 0 "P100" H 5500 2950 50  0000 C CNN
F 1 "CONN_01X01" V 5450 2950 50  0001 C CNN
F 2 "wheelerlab:1.9mm_DMF_Electrode" H 5350 2950 50  0001 C CNN
F 3 "" H 5350 2950 50  0000 C CNN
	1    5350 2950
	1    0    0    -1  
$EndComp
$Comp
L CONN_01X01 P101
U 1 1 58EE51C9
P 4450 3050
F 0 "P101" H 4600 3050 50  0000 C CNN
F 1 "CONN_01X01" V 4550 3050 50  0001 C CNN
F 2 "wheelerlab:1.9mm_DMF_Electrode" H 4450 3050 50  0001 C CNN
F 3 "" H 4450 3050 50  0000 C CNN
	1    4450 3050
	-1   0    0    -1  
$EndComp
$Comp
L CONN_01X01 P102
U 1 1 58EE51CF
P 5350 3050
F 0 "P102" H 5500 3050 50  0000 C CNN
F 1 "CONN_01X01" V 5450 3050 50  0001 C CNN
F 2 "wheelerlab:1.9mm_DMF_Electrode" H 5350 3050 50  0001 C CNN
F 3 "" H 5350 3050 50  0000 C CNN
	1    5350 3050
	1    0    0    -1  
$EndComp
$Comp
L CONN_01X01 P103
U 1 1 58EE51D5
P 4450 3150
F 0 "P103" H 4600 3150 50  0000 C CNN
F 1 "CONN_01X01" V 4550 3150 50  0001 C CNN
F 2 "wheelerlab:1.9mm_DMF_Electrode" H 4450 3150 50  0001 C CNN
F 3 "" H 4450 3150 50  0000 C CNN
	1    4450 3150
	-1   0    0    -1  
$EndComp
$Comp
L CONN_01X01 P104
U 1 1 58EE51DB
P 5350 3150
F 0 "P104" H 5500 3150 50  0000 C CNN
F 1 "CONN_01X01" V 5450 3150 50  0001 C CNN
F 2 "wheelerlab:1.9mm_DMF_Electrode" H 5350 3150 50  0001 C CNN
F 3 "" H 5350 3150 50  0000 C CNN
	1    5350 3150
	1    0    0    -1  
$EndComp
$Comp
L CONN_01X01 P105
U 1 1 58EE51E1
P 4450 3250
F 0 "P105" H 4600 3250 50  0000 C CNN
F 1 "CONN_01X01" V 4550 3250 50  0001 C CNN
F 2 "wheelerlab:1.9mm_DMF_Electrode" H 4450 3250 50  0001 C CNN
F 3 "" H 4450 3250 50  0000 C CNN
	1    4450 3250
	-1   0    0    -1  
$EndComp
$Comp
L CONN_01X01 P106
U 1 1 58EE51E7
P 5350 3250
F 0 "P106" H 5500 3250 50  0000 C CNN
F 1 "CONN_01X01" V 5450 3250 50  0001 C CNN
F 2 "wheelerlab:1.9mm_DMF_Electrode" H 5350 3250 50  0001 C CNN
F 3 "" H 5350 3250 50  0000 C CNN
	1    5350 3250
	1    0    0    -1  
$EndComp
$Comp
L CONN_01X01 P107
U 1 1 58EE51ED
P 4450 3350
F 0 "P107" H 4600 3350 50  0000 C CNN
F 1 "CONN_01X01" V 4550 3350 50  0001 C CNN
F 2 "wheelerlab:1.9mm_DMF_Electrode" H 4450 3350 50  0001 C CNN
F 3 "" H 4450 3350 50  0000 C CNN
	1    4450 3350
	-1   0    0    -1  
$EndComp
$Comp
L CONN_01X01 P108
U 1 1 58EE51F3
P 5350 3350
F 0 "P108" H 5500 3350 50  0000 C CNN
F 1 "CONN_01X01" V 5450 3350 50  0001 C CNN
F 2 "wheelerlab:1.9mm_DMF_Electrode" H 5350 3350 50  0001 C CNN
F 3 "" H 5350 3350 50  0000 C CNN
	1    5350 3350
	1    0    0    -1  
$EndComp
$Comp
L CONN_01X01 P109
U 1 1 58EE51F9
P 4450 3450
F 0 "P109" H 4600 3450 50  0000 C CNN
F 1 "CONN_01X01" V 4550 3450 50  0001 C CNN
F 2 "wheelerlab:1.9mm_DMF_Electrode" H 4450 3450 50  0001 C CNN
F 3 "" H 4450 3450 50  0000 C CNN
	1    4450 3450
	-1   0    0    -1  
$EndComp
$Comp
L CONN_01X01 P110
U 1 1 58EE51FF
P 5350 3450
F 0 "P110" H 5500 3450 50  0000 C CNN
F 1 "CONN_01X01" V 5450 3450 50  0001 C CNN
F 2 "wheelerlab:1.9mm_DMF_Electrode" H 5350 3450 50  0001 C CNN
F 3 "" H 5350 3450 50  0000 C CNN
	1    5350 3450
	1    0    0    -1  
$EndComp
$Comp
L CONN_01X01 P111
U 1 1 58EE5205
P 4450 3550
F 0 "P111" H 4600 3550 50  0000 C CNN
F 1 "CONN_01X01" V 4550 3550 50  0001 C CNN
F 2 "wheelerlab:1.9mm_DMF_Electrode" H 4450 3550 50  0001 C CNN
F 3 "" H 4450 3550 50  0000 C CNN
	1    4450 3550
	-1   0    0    -1  
$EndComp
$Comp
L CONN_01X01 P112
U 1 1 58EE520B
P 5350 3550
F 0 "P112" H 5500 3550 50  0000 C CNN
F 1 "CONN_01X01" V 5450 3550 50  0001 C CNN
F 2 "wheelerlab:1.9mm_DMF_Electrode" H 5350 3550 50  0001 C CNN
F 3 "" H 5350 3550 50  0000 C CNN
	1    5350 3550
	1    0    0    -1  
$EndComp
$Comp
L CONN_01X01 P113
U 1 1 58EE5211
P 4450 3650
F 0 "P113" H 4600 3650 50  0000 C CNN
F 1 "CONN_01X01" V 4550 3650 50  0001 C CNN
F 2 "wheelerlab:1.9mm_DMF_Electrode" H 4450 3650 50  0001 C CNN
F 3 "" H 4450 3650 50  0000 C CNN
	1    4450 3650
	-1   0    0    -1  
$EndComp
$Comp
L CONN_01X01 P114
U 1 1 58EE5217
P 5350 3650
F 0 "P114" H 5500 3650 50  0000 C CNN
F 1 "CONN_01X01" V 5450 3650 50  0001 C CNN
F 2 "wheelerlab:1.9mm_DMF_Electrode" H 5350 3650 50  0001 C CNN
F 3 "" H 5350 3650 50  0000 C CNN
	1    5350 3650
	1    0    0    -1  
$EndComp
$Comp
L CONN_01X01 P115
U 1 1 58EE521D
P 4450 3750
F 0 "P115" H 4600 3750 50  0000 C CNN
F 1 "CONN_01X01" V 4550 3750 50  0001 C CNN
F 2 "wheelerlab:1.9mm_DMF_Electrode" H 4450 3750 50  0001 C CNN
F 3 "" H 4450 3750 50  0000 C CNN
	1    4450 3750
	-1   0    0    -1  
$EndComp
$Comp
L CONN_01X01 P116
U 1 1 58EE5223
P 5350 3750
F 0 "P116" H 5500 3750 50  0000 C CNN
F 1 "CONN_01X01" V 5450 3750 50  0001 C CNN
F 2 "wheelerlab:1.9mm_DMF_Electrode" H 5350 3750 50  0001 C CNN
F 3 "" H 5350 3750 50  0000 C CNN
	1    5350 3750
	1    0    0    -1  
$EndComp
$Comp
L CONN_01X01 P117
U 1 1 58EE5229
P 4450 3850
F 0 "P117" H 4600 3850 50  0000 C CNN
F 1 "CONN_01X01" V 4550 3850 50  0001 C CNN
F 2 "wheelerlab:1.9mm_DMF_Electrode" H 4450 3850 50  0001 C CNN
F 3 "" H 4450 3850 50  0000 C CNN
	1    4450 3850
	-1   0    0    -1  
$EndComp
$Comp
L CONN_01X01 P118
U 1 1 58EE522F
P 5350 3850
F 0 "P118" H 5500 3850 50  0000 C CNN
F 1 "CONN_01X01" V 5450 3850 50  0001 C CNN
F 2 "wheelerlab:1.9mm_DMF_Electrode" H 5350 3850 50  0001 C CNN
F 3 "" H 5350 3850 50  0000 C CNN
	1    5350 3850
	1    0    0    -1  
$EndComp
$Comp
L CONN_01X01 P119
U 1 1 58EE5235
P 4450 3950
F 0 "P119" H 4600 3950 50  0000 C CNN
F 1 "CONN_01X01" V 4550 3950 50  0001 C CNN
F 2 "wheelerlab:1.9mm_DMF_Electrode" H 4450 3950 50  0001 C CNN
F 3 "" H 4450 3950 50  0000 C CNN
	1    4450 3950
	-1   0    0    -1  
$EndComp
$Comp
L CONN_01X01 P120
U 1 1 58EE523B
P 5350 3950
F 0 "P120" H 5500 3950 50  0000 C CNN
F 1 "CONN_01X01" V 5450 3950 50  0001 C CNN
F 2 "wheelerlab:1.9mm_DMF_Electrode" H 5350 3950 50  0001 C CNN
F 3 "" H 5350 3950 50  0000 C CNN
	1    5350 3950
	1    0    0    -1  
$EndComp
$Comp
L CONN_01X01 P122
U 1 1 58EE9826
P 6500 2250
F 0 "P122" H 6650 2250 50  0000 C CNN
F 1 "CONN_01X01" V 6600 2250 50  0001 C CNN
F 2 "wheelerlab:1.9mm_DMF_Electrode" H 6500 2250 50  0001 C CNN
F 3 "" H 6500 2250 50  0000 C CNN
	1    6500 2250
	1    0    0    -1  
$EndComp
$Comp
L CONN_01X01 P123
U 1 1 58EE9A60
P 6500 2050
F 0 "P123" H 6650 2050 50  0000 C CNN
F 1 "CONN_01X01" V 6600 2050 50  0001 C CNN
F 2 "wheelerlab:1.9mm_DMF_Electrode" H 6500 2050 50  0001 C CNN
F 3 "" H 6500 2050 50  0000 C CNN
	1    6500 2050
	1    0    0    -1  
$EndComp
$Comp
L CONN_01X01 P124
U 1 1 58EE9B6D
P 6500 2150
F 0 "P124" H 6650 2150 50  0000 C CNN
F 1 "CONN_01X01" V 6600 2150 50  0001 C CNN
F 2 "wheelerlab:1.9mm_DMF_Electrode" H 6500 2150 50  0001 C CNN
F 3 "" H 6500 2150 50  0000 C CNN
	1    6500 2150
	1    0    0    -1  
$EndComp
$Comp
L CONN_01X01 P125
U 1 1 58EE9B73
P 6500 2350
F 0 "P125" H 6650 2350 50  0000 C CNN
F 1 "CONN_01X01" V 6600 2350 50  0001 C CNN
F 2 "wheelerlab:1.9mm_DMF_Electrode" H 6500 2350 50  0001 C CNN
F 3 "" H 6500 2350 50  0000 C CNN
	1    6500 2350
	1    0    0    -1  
$EndComp
$Comp
L CONN_01X01 P126
U 1 1 58EECA02
P 6500 2600
F 0 "P126" H 6650 2600 50  0000 C CNN
F 1 "CONN_01X01" V 6600 2600 50  0001 C CNN
F 2 "wheelerlab:1.9mm_DMF_Electrode" H 6500 2600 50  0001 C CNN
F 3 "" H 6500 2600 50  0000 C CNN
	1    6500 2600
	1    0    0    -1  
$EndComp
$Comp
L CONN_01X01 P127
U 1 1 58EECA08
P 6500 2700
F 0 "P127" H 6650 2700 50  0000 C CNN
F 1 "CONN_01X01" V 6600 2700 50  0001 C CNN
F 2 "wheelerlab:1.9mm_DMF_Electrode" H 6500 2700 50  0001 C CNN
F 3 "" H 6500 2700 50  0000 C CNN
	1    6500 2700
	1    0    0    -1  
$EndComp
$Comp
L CONN_01X01 P128
U 1 1 58EECA0E
P 6500 2900
F 0 "P128" H 6650 2900 50  0000 C CNN
F 1 "CONN_01X01" V 6600 2900 50  0001 C CNN
F 2 "wheelerlab:1.9mm_DMF_Electrode" H 6500 2900 50  0001 C CNN
F 3 "" H 6500 2900 50  0000 C CNN
	1    6500 2900
	1    0    0    -1  
$EndComp
$Comp
L CONN_01X01 P129
U 1 1 58EECA14
P 6500 3000
F 0 "P129" H 6650 3000 50  0000 C CNN
F 1 "CONN_01X01" V 6600 3000 50  0001 C CNN
F 2 "wheelerlab:1.9mm_DMF_Electrode" H 6500 3000 50  0001 C CNN
F 3 "" H 6500 3000 50  0000 C CNN
	1    6500 3000
	1    0    0    -1  
$EndComp
$Comp
L CONN_01X01 P130
U 1 1 58EED272
P 6500 3200
F 0 "P130" H 6650 3200 50  0000 C CNN
F 1 "CONN_01X01" V 6600 3200 50  0001 C CNN
F 2 "wheelerlab:1.9mm_DMF_Electrode" H 6500 3200 50  0001 C CNN
F 3 "" H 6500 3200 50  0000 C CNN
	1    6500 3200
	1    0    0    -1  
$EndComp
$Comp
L CONN_01X01 P131
U 1 1 58EED278
P 6500 3300
F 0 "P131" H 6650 3300 50  0000 C CNN
F 1 "CONN_01X01" V 6600 3300 50  0001 C CNN
F 2 "wheelerlab:1.9mm_DMF_Electrode" H 6500 3300 50  0001 C CNN
F 3 "" H 6500 3300 50  0000 C CNN
	1    6500 3300
	1    0    0    -1  
$EndComp
$Comp
L CONN_01X01 P132
U 1 1 58EED27E
P 6500 3500
F 0 "P132" H 6650 3500 50  0000 C CNN
F 1 "CONN_01X01" V 6600 3500 50  0001 C CNN
F 2 "wheelerlab:1.9mm_DMF_Electrode" H 6500 3500 50  0001 C CNN
F 3 "" H 6500 3500 50  0000 C CNN
	1    6500 3500
	1    0    0    -1  
$EndComp
$Comp
L CONN_01X01 P133
U 1 1 58EED284
P 6500 3600
F 0 "P133" H 6650 3600 50  0000 C CNN
F 1 "CONN_01X01" V 6600 3600 50  0001 C CNN
F 2 "wheelerlab:1.9mm_DMF_Electrode" H 6500 3600 50  0001 C CNN
F 3 "" H 6500 3600 50  0000 C CNN
	1    6500 3600
	1    0    0    -1  
$EndComp
Wire Wire Line
	6300 2600 6300 3600
$Comp
L CONN_01X01 P134
U 1 1 58EEE4A0
P 6500 3800
F 0 "P134" H 6650 3800 50  0000 C CNN
F 1 "CONN_01X01" V 6600 3800 50  0001 C CNN
F 2 "wheelerlab:1.9mm_DMF_Electrode" H 6500 3800 50  0001 C CNN
F 3 "" H 6500 3800 50  0000 C CNN
	1    6500 3800
	1    0    0    -1  
$EndComp
$Comp
L CONN_01X01 P135
U 1 1 58EEE4A6
P 6500 3900
F 0 "P135" H 6650 3900 50  0000 C CNN
F 1 "CONN_01X01" V 6600 3900 50  0001 C CNN
F 2 "wheelerlab:1.9mm_DMF_Electrode" H 6500 3900 50  0001 C CNN
F 3 "" H 6500 3900 50  0000 C CNN
	1    6500 3900
	1    0    0    -1  
$EndComp
$Comp
L CONN_01X01 P136
U 1 1 58EEECC4
P 6500 4000
F 0 "P136" H 6650 4000 50  0000 C CNN
F 1 "CONN_01X01" V 6600 4000 50  0001 C CNN
F 2 "wheelerlab:1.9mm_DMF_Electrode" H 6500 4000 50  0001 C CNN
F 3 "" H 6500 4000 50  0000 C CNN
	1    6500 4000
	1    0    0    -1  
$EndComp
$Comp
L CONN_01X01 P137
U 1 1 58EEECCA
P 6500 4100
F 0 "P137" H 6650 4100 50  0000 C CNN
F 1 "CONN_01X01" V 6600 4100 50  0001 C CNN
F 2 "wheelerlab:1.9mm_DMF_Electrode" H 6500 4100 50  0001 C CNN
F 3 "" H 6500 4100 50  0000 C CNN
	1    6500 4100
	1    0    0    -1  
$EndComp
NoConn ~ 6300 3800
NoConn ~ 6300 3900
NoConn ~ 6300 4000
NoConn ~ 6300 4100
$Comp
L CONN_02X20 J1
U 1 1 58EF300C
P 1750 3000
F 0 "J1" H 1750 4050 50  0000 C CNN
F 1 "CONN_02X20" V 1750 3000 50  0000 C CNN
F 2 "WheelerLab:TFML-120-02-S-D" H 1750 2050 50  0001 C CNN
F 3 "" H 1750 2050 50  0000 C CNN
F 4 "TFML-120-02-S-D" H 1750 3000 60  0001 C CNN "Mfg_Part_No"
	1    1750 3000
	1    0    0    -1  
$EndComp
$Comp
L CONN_02X20 J3
U 1 1 58EF3D8C
P 4900 3000
F 0 "J3" H 4900 4050 50  0000 C CNN
F 1 "CONN_02X20" V 4900 3000 50  0000 C CNN
F 2 "WheelerLab:TFML-120-02-S-D" H 4900 2050 50  0001 C CNN
F 3 "" H 4900 2050 50  0000 C CNN
F 4 "TFML-120-02-S-D" H 4900 3000 60  0001 C CNN "Mfg_Part_No"
	1    4900 3000
	1    0    0    -1  
$EndComp
$Comp
L CONN_02X20 J2
U 1 1 58EF4106
P 3350 3000
F 0 "J2" H 3350 4050 50  0000 C CNN
F 1 "CONN_02X20" V 3350 3000 50  0000 C CNN
F 2 "WheelerLab:TFML-120-02-S-D" H 3350 2050 50  0001 C CNN
F 3 "" H 3350 2050 50  0000 C CNN
F 4 "TFML-120-02-S-D" H 3350 3000 60  0001 C CNN "Mfg_Part_No"
	1    3350 3000
	1    0    0    -1  
$EndComp
Text GLabel 6300 2050 0    60   Input ~ 0
CUR_SENSE
$Comp
L BNC P121
U 1 1 58EF5F8F
P 6550 1600
F 0 "P121" H 6560 1720 50  0000 C CNN
F 1 "BNC" V 6660 1540 50  0000 C CNN
F 2 "Connect:SMA_SMD_Jack_Straight" H 6550 1600 50  0001 C CNN
F 3 "" H 6550 1600 50  0000 C CNN
F 4 "CONSMA002-SMD-G" H 6550 1600 60  0001 C CNN "Mfg_Part_No"
	1    6550 1600
	1    0    0    -1  
$EndComp
Text GLabel 6300 2600 0    60   Input ~ 0
GND
Connection ~ 6300 2900
Connection ~ 6300 2700
Connection ~ 6300 3200
Connection ~ 6300 3000
Connection ~ 6300 3500
Connection ~ 6300 3300
Text GLabel 6550 1800 0    60   Input ~ 0
GND
Text GLabel 6400 1600 0    60   Input ~ 0
CUR_SENSE
Wire Wire Line
	6300 2050 6300 2150
NoConn ~ 6300 2250
NoConn ~ 6300 2350
$EndSCHEMATC
